transcript
# Compile of Design.v was successful with warnings.
# Compile of Testbench.v was successful.
# 2 compiles, 0 failed with no errors.
vsim -gui work.TB_Modulator_Assemblage
# vsim -gui work.TB_Modulator_Assemblage 
# Start time: 10:42:42 on Nov 28,2019
# Loading work.TB_Modulator_Assemblage
# Loading work.Modulator_Assemblage
# Loading work.counter
# Loading work.T_FF
# Loading work.mux_4w
# Loading work.mux
# Loading work.FSK
# Loading work.sine_wave_generator
# Loading work.mux_16_64w
# Loading work.mux_16_8w
# Loading work.mux_16
# Loading work.ASK
# Loading work.mult_16
# Loading work.andgat
# Loading work.adder_32b
# Loading work.adder_4b
# Loading work.half_adder
# Loading work.full_adder
# Loading work.full_adder_4b
# Loading work.BPSK
# Loading work.sine_wave_Pi_shift
# Loading work.adder_6b
# Loading work.QPSK
# Loading work.mux_16_4w
# ** Warning: Design size of 7651 instances exceeds ModelSim - Intel FPGA Starter Edition recommended capacity.
# This may because you are loading cell libraries which are not recommended with
# the ModelSim - Intel FPGA Edition. Expect performance to be adversely affected.
# WARNING: No extended dataflow license exists
add wave -position insertpoint  \
sim:/TB_Modulator_Assemblage/clk \
sim:/TB_Modulator_Assemblage/Din \
sim:/TB_Modulator_Assemblage/Freq \
sim:/TB_Modulator_Assemblage/Mod \
sim:/TB_Modulator_Assemblage/out
# ** Warning: (vsim-WLF-5000) WLF file currently in use: vsim.wlf
#           File in use by: J  Hostname: LAPTOP-CC4UDENV  ProcessID: 32604
#           Attempting to use alternate WLF file "./wlfttk3rhf".
# ** Warning: (vsim-WLF-5001) Could not open WLF file: vsim.wlf
#           Using alternate file: ./wlfttk3rhf
run
# out=  902 Din=0 Mod=0 Freq=0 clk=0
# out= 1000 Din=0 Mod=0 Freq=0 clk=1
# out= 1000 Din=0 Mod=0 Freq=0 clk=0
# out= 1000 Din=0 Mod=0 Freq=0 clk=1
# out= 1000 Din=0 Mod=0 Freq=0 clk=0
# out= 1000 Din=0 Mod=0 Freq=0 clk=1
# out= 1000 Din=0 Mod=0 Freq=0 clk=0
# out= 1000 Din=0 Mod=0 Freq=0 clk=1
# out= 1000 Din=0 Mod=0 Freq=0 clk=0
# out= 1098 Din=0 Mod=0 Freq=0 clk=1
# out= 1098 Din=0 Mod=0 Freq=0 clk=0
# out= 1098 Din=0 Mod=0 Freq=0 clk=1
# out= 1098 Din=0 Mod=0 Freq=0 clk=0
# out= 1098 Din=0 Mod=0 Freq=0 clk=1
# out= 1098 Din=0 Mod=0 Freq=0 clk=0
# out= 1098 Din=0 Mod=0 Freq=0 clk=1
# out= 1098 Din=0 Mod=0 Freq=0 clk=0
# out= 1195 Din=0 Mod=0 Freq=0 clk=1
# out= 1195 Din=0 Mod=0 Freq=0 clk=0
# out= 1195 Din=0 Mod=0 Freq=0 clk=1
# out= 1195 Din=0 Mod=0 Freq=0 clk=0
# out= 1195 Din=0 Mod=0 Freq=0 clk=1
# out= 1195 Din=0 Mod=0 Freq=0 clk=0
# out= 1195 Din=0 Mod=0 Freq=0 clk=1
# out= 1195 Din=0 Mod=0 Freq=0 clk=0
# out= 1290 Din=0 Mod=0 Freq=0 clk=1
# out= 1290 Din=0 Mod=0 Freq=0 clk=0
# out= 1290 Din=0 Mod=0 Freq=0 clk=1
# out= 1290 Din=0 Mod=0 Freq=0 clk=0
# out= 1290 Din=0 Mod=0 Freq=0 clk=1
# out= 1290 Din=0 Mod=0 Freq=0 clk=0
# out= 1290 Din=0 Mod=0 Freq=0 clk=1
# out= 1290 Din=0 Mod=0 Freq=0 clk=0
# out= 1383 Din=0 Mod=0 Freq=0 clk=1
# out= 1383 Din=0 Mod=0 Freq=0 clk=0
# out= 1383 Din=0 Mod=0 Freq=0 clk=1
# out= 1383 Din=0 Mod=0 Freq=0 clk=0
# out= 1383 Din=0 Mod=0 Freq=0 clk=1
# out= 1383 Din=0 Mod=0 Freq=0 clk=0
# out= 1383 Din=0 Mod=0 Freq=0 clk=1
# out= 1383 Din=0 Mod=0 Freq=0 clk=0
# out= 1471 Din=0 Mod=0 Freq=0 clk=1
# out= 1471 Din=0 Mod=0 Freq=0 clk=0
# out= 1471 Din=0 Mod=0 Freq=0 clk=1
# out= 1471 Din=0 Mod=0 Freq=0 clk=0
# out= 1471 Din=0 Mod=0 Freq=0 clk=1
# out= 1471 Din=0 Mod=0 Freq=0 clk=0
# out= 1471 Din=0 Mod=0 Freq=0 clk=1
# out= 1471 Din=0 Mod=0 Freq=0 clk=0
# out= 1556 Din=0 Mod=0 Freq=0 clk=1
# out= 1556 Din=0 Mod=0 Freq=0 clk=0
# out= 1556 Din=0 Mod=0 Freq=0 clk=1
# out= 1556 Din=0 Mod=0 Freq=0 clk=0
# out= 1556 Din=0 Mod=0 Freq=0 clk=1
# out= 1556 Din=0 Mod=0 Freq=0 clk=0
# out= 1556 Din=0 Mod=0 Freq=0 clk=1
# out= 1556 Din=0 Mod=0 Freq=0 clk=0
# out= 1634 Din=0 Mod=0 Freq=0 clk=1
# out= 1634 Din=0 Mod=0 Freq=0 clk=0
# out= 1634 Din=0 Mod=0 Freq=0 clk=1
# out= 1634 Din=0 Mod=0 Freq=0 clk=0
# out= 1634 Din=0 Mod=0 Freq=0 clk=1
# out= 1634 Din=0 Mod=0 Freq=0 clk=0
# out= 1634 Din=0 Mod=0 Freq=0 clk=1
# out= 1634 Din=0 Mod=0 Freq=0 clk=0
# out= 1707 Din=0 Mod=0 Freq=0 clk=1
# out= 1707 Din=0 Mod=0 Freq=0 clk=0
# out= 1707 Din=0 Mod=0 Freq=0 clk=1
# out= 1707 Din=0 Mod=0 Freq=0 clk=0
# out= 1707 Din=0 Mod=0 Freq=0 clk=1
# out= 1707 Din=0 Mod=0 Freq=0 clk=0
# out= 1707 Din=0 Mod=0 Freq=0 clk=1
# out= 1707 Din=0 Mod=0 Freq=0 clk=0
# out= 1773 Din=0 Mod=0 Freq=0 clk=1
# out= 1773 Din=0 Mod=0 Freq=0 clk=0
# out= 1773 Din=0 Mod=0 Freq=0 clk=1
# out= 1773 Din=0 Mod=0 Freq=0 clk=0
# out= 1773 Din=0 Mod=0 Freq=0 clk=1
# out= 1773 Din=0 Mod=0 Freq=0 clk=0
# out= 1773 Din=0 Mod=0 Freq=0 clk=1
# out= 1773 Din=0 Mod=0 Freq=0 clk=0
# out= 1831 Din=0 Mod=0 Freq=0 clk=1
# out= 1831 Din=0 Mod=0 Freq=0 clk=0
# out= 1831 Din=0 Mod=0 Freq=0 clk=1
# out= 1831 Din=0 Mod=0 Freq=0 clk=0
# out= 1831 Din=0 Mod=0 Freq=0 clk=1
# out= 1831 Din=0 Mod=0 Freq=0 clk=0
# out= 1831 Din=0 Mod=0 Freq=0 clk=1
# out= 1831 Din=0 Mod=0 Freq=0 clk=0
# out= 1882 Din=0 Mod=0 Freq=0 clk=1
# out= 1882 Din=0 Mod=0 Freq=0 clk=0
# out= 1882 Din=0 Mod=0 Freq=0 clk=1
# out= 1882 Din=0 Mod=0 Freq=0 clk=0
# out= 1882 Din=0 Mod=0 Freq=0 clk=1
# out= 1882 Din=0 Mod=0 Freq=0 clk=0
# out= 1882 Din=0 Mod=0 Freq=0 clk=1
# out= 1882 Din=0 Mod=0 Freq=0 clk=0
# out= 1924 Din=0 Mod=0 Freq=0 clk=1
# out= 1924 Din=0 Mod=0 Freq=0 clk=0
# out= 1924 Din=0 Mod=0 Freq=0 clk=1
# out= 1924 Din=0 Mod=0 Freq=0 clk=0
# out= 1924 Din=0 Mod=0 Freq=0 clk=1
# out= 1924 Din=0 Mod=0 Freq=0 clk=0
# out= 1924 Din=0 Mod=0 Freq=0 clk=1
# out= 1924 Din=0 Mod=0 Freq=0 clk=0
# out= 1957 Din=0 Mod=0 Freq=0 clk=1
# out= 1957 Din=0 Mod=0 Freq=0 clk=0
# out= 1957 Din=0 Mod=0 Freq=0 clk=1
# out= 1957 Din=0 Mod=0 Freq=0 clk=0
# out= 1957 Din=0 Mod=0 Freq=0 clk=1
# out= 1957 Din=0 Mod=0 Freq=0 clk=0
# out= 1957 Din=0 Mod=0 Freq=0 clk=1
# out= 1957 Din=0 Mod=0 Freq=0 clk=0
# out= 1981 Din=0 Mod=0 Freq=0 clk=1
# out= 1981 Din=0 Mod=0 Freq=0 clk=0
# out= 1981 Din=0 Mod=0 Freq=0 clk=1
# out= 1981 Din=0 Mod=0 Freq=0 clk=0
# out= 1981 Din=0 Mod=0 Freq=0 clk=1
# out= 1981 Din=0 Mod=0 Freq=0 clk=0
# out= 1981 Din=0 Mod=0 Freq=0 clk=1
# out= 1981 Din=0 Mod=0 Freq=0 clk=0
# out= 1995 Din=0 Mod=0 Freq=0 clk=1
# out= 1995 Din=0 Mod=0 Freq=0 clk=0
# out= 1995 Din=0 Mod=0 Freq=0 clk=1
# out= 1995 Din=0 Mod=0 Freq=0 clk=0
# out= 1995 Din=0 Mod=0 Freq=0 clk=1
# out= 1995 Din=0 Mod=0 Freq=0 clk=0
# out= 1995 Din=0 Mod=0 Freq=0 clk=1
# out= 1995 Din=0 Mod=0 Freq=0 clk=0
# out= 2000 Din=0 Mod=0 Freq=0 clk=1
# out= 2000 Din=0 Mod=0 Freq=0 clk=0
# out= 2000 Din=0 Mod=0 Freq=0 clk=1
# out= 2000 Din=0 Mod=0 Freq=0 clk=0
# out= 2000 Din=0 Mod=0 Freq=0 clk=1
# out= 2000 Din=0 Mod=0 Freq=0 clk=0
# out= 2000 Din=0 Mod=0 Freq=0 clk=1
# out= 2000 Din=0 Mod=0 Freq=0 clk=0
# out= 1995 Din=0 Mod=0 Freq=0 clk=1
# out= 1995 Din=0 Mod=0 Freq=0 clk=0
# out= 1995 Din=0 Mod=0 Freq=0 clk=1
# out= 1995 Din=0 Mod=0 Freq=0 clk=0
# out= 1995 Din=0 Mod=0 Freq=0 clk=1
# out= 1995 Din=0 Mod=0 Freq=0 clk=0
# out= 1995 Din=0 Mod=0 Freq=0 clk=1
# out= 1995 Din=0 Mod=0 Freq=0 clk=0
# out= 1981 Din=0 Mod=0 Freq=0 clk=1
# out= 1981 Din=0 Mod=0 Freq=0 clk=0
# out= 1981 Din=0 Mod=0 Freq=0 clk=1
# out= 1981 Din=0 Mod=0 Freq=0 clk=0
# out= 1981 Din=0 Mod=0 Freq=0 clk=1
# out= 1981 Din=0 Mod=0 Freq=0 clk=0
# out= 1981 Din=0 Mod=0 Freq=0 clk=1
# out= 1981 Din=0 Mod=0 Freq=0 clk=0
# out= 1957 Din=0 Mod=0 Freq=0 clk=1
# out= 1957 Din=0 Mod=0 Freq=0 clk=0
# out= 1957 Din=0 Mod=0 Freq=0 clk=1
# out= 1957 Din=0 Mod=0 Freq=0 clk=0
# out= 1957 Din=0 Mod=0 Freq=0 clk=1
# out= 1957 Din=0 Mod=0 Freq=0 clk=0
# out= 1957 Din=0 Mod=0 Freq=0 clk=1
# out= 1957 Din=0 Mod=0 Freq=0 clk=0
# out= 1924 Din=0 Mod=0 Freq=0 clk=1
# out= 1924 Din=0 Mod=0 Freq=0 clk=0
# out= 1924 Din=0 Mod=0 Freq=0 clk=1
# out= 1924 Din=0 Mod=0 Freq=0 clk=0
# out= 1924 Din=0 Mod=0 Freq=0 clk=1
# out= 1924 Din=0 Mod=0 Freq=0 clk=0
# out= 1924 Din=0 Mod=0 Freq=0 clk=1
# out= 1924 Din=0 Mod=0 Freq=0 clk=0
# out= 1882 Din=0 Mod=0 Freq=0 clk=1
# out= 1882 Din=0 Mod=0 Freq=0 clk=0
# out= 1882 Din=0 Mod=0 Freq=0 clk=1
# out= 1882 Din=0 Mod=0 Freq=0 clk=0
# out= 1882 Din=0 Mod=0 Freq=0 clk=1
# out= 1882 Din=0 Mod=0 Freq=0 clk=0
# out= 1882 Din=0 Mod=0 Freq=0 clk=1
# out= 1882 Din=0 Mod=0 Freq=0 clk=0
# out= 1831 Din=0 Mod=0 Freq=0 clk=1
# out= 1831 Din=0 Mod=0 Freq=0 clk=0
# out= 1831 Din=0 Mod=0 Freq=0 clk=1
# out= 1831 Din=0 Mod=0 Freq=0 clk=0
# out= 1831 Din=0 Mod=0 Freq=0 clk=1
# out= 1831 Din=0 Mod=0 Freq=0 clk=0
# out= 1831 Din=0 Mod=0 Freq=0 clk=1
# out= 1831 Din=0 Mod=0 Freq=0 clk=0
# out= 1773 Din=0 Mod=0 Freq=0 clk=1
# out= 1773 Din=0 Mod=0 Freq=0 clk=0
# out= 1773 Din=0 Mod=0 Freq=0 clk=1
# out= 1773 Din=0 Mod=0 Freq=0 clk=0
# out= 1773 Din=0 Mod=0 Freq=0 clk=1
# out= 1773 Din=0 Mod=0 Freq=0 clk=0
# out= 1773 Din=0 Mod=0 Freq=0 clk=1
# out= 1773 Din=0 Mod=0 Freq=0 clk=0
# out= 1707 Din=0 Mod=0 Freq=0 clk=1
# out= 1707 Din=0 Mod=0 Freq=0 clk=0
# out= 1707 Din=0 Mod=0 Freq=0 clk=1
# out= 1707 Din=0 Mod=0 Freq=0 clk=0
# out= 1707 Din=0 Mod=0 Freq=0 clk=1
# out= 1707 Din=0 Mod=0 Freq=0 clk=0
# out= 1707 Din=0 Mod=0 Freq=0 clk=1
# out= 1707 Din=0 Mod=0 Freq=0 clk=0
# out= 1634 Din=0 Mod=0 Freq=0 clk=1
# out= 1634 Din=0 Mod=0 Freq=0 clk=0
# out= 1634 Din=0 Mod=0 Freq=0 clk=1
# out= 1634 Din=0 Mod=0 Freq=0 clk=0
# out= 1634 Din=0 Mod=0 Freq=0 clk=1
# out= 1634 Din=0 Mod=0 Freq=0 clk=0
# out= 1634 Din=0 Mod=0 Freq=0 clk=1
# out= 1634 Din=0 Mod=0 Freq=0 clk=0
# out= 1556 Din=0 Mod=0 Freq=0 clk=1
# out= 1556 Din=0 Mod=0 Freq=0 clk=0
# out= 1556 Din=0 Mod=0 Freq=0 clk=1
# out= 1556 Din=0 Mod=0 Freq=0 clk=0
# out= 1556 Din=0 Mod=0 Freq=0 clk=1
# out= 1556 Din=0 Mod=0 Freq=0 clk=0
# out= 1556 Din=0 Mod=0 Freq=0 clk=1
# out= 1556 Din=0 Mod=0 Freq=0 clk=0
# out= 1471 Din=0 Mod=0 Freq=0 clk=1
# out= 1471 Din=0 Mod=0 Freq=0 clk=0
# out= 1471 Din=0 Mod=0 Freq=0 clk=1
# out= 1471 Din=0 Mod=0 Freq=0 clk=0
# out= 1471 Din=0 Mod=0 Freq=0 clk=1
# out= 1471 Din=0 Mod=0 Freq=0 clk=0
# out= 1471 Din=0 Mod=0 Freq=0 clk=1
# out= 1471 Din=0 Mod=0 Freq=0 clk=0
# out= 1383 Din=0 Mod=0 Freq=0 clk=1
# out= 1383 Din=0 Mod=0 Freq=0 clk=0
# out= 1383 Din=0 Mod=0 Freq=0 clk=1
# out= 1383 Din=0 Mod=0 Freq=0 clk=0
# out= 1383 Din=0 Mod=0 Freq=0 clk=1
# out= 1383 Din=0 Mod=0 Freq=0 clk=0
# out= 1383 Din=0 Mod=0 Freq=0 clk=1
# out= 1383 Din=0 Mod=0 Freq=0 clk=0
# out= 1290 Din=0 Mod=0 Freq=0 clk=1
# out= 1290 Din=0 Mod=0 Freq=0 clk=0
# out= 1290 Din=0 Mod=0 Freq=0 clk=1
# out= 1290 Din=0 Mod=0 Freq=0 clk=0
# out= 1290 Din=0 Mod=0 Freq=0 clk=1
# out= 1290 Din=0 Mod=0 Freq=0 clk=0
# out= 1290 Din=0 Mod=0 Freq=0 clk=1
# out= 1290 Din=0 Mod=0 Freq=0 clk=0
# out= 1195 Din=0 Mod=0 Freq=0 clk=1
# out= 1195 Din=0 Mod=0 Freq=0 clk=0
# out= 1195 Din=0 Mod=0 Freq=0 clk=1
# out= 1195 Din=0 Mod=0 Freq=0 clk=0
# out= 1195 Din=0 Mod=0 Freq=0 clk=1
# out= 1195 Din=0 Mod=0 Freq=0 clk=0
# out= 1195 Din=0 Mod=0 Freq=0 clk=1
# out= 1195 Din=0 Mod=0 Freq=0 clk=0
# out= 1098 Din=0 Mod=0 Freq=0 clk=1
# out= 1098 Din=0 Mod=0 Freq=0 clk=0
# out= 1098 Din=0 Mod=0 Freq=0 clk=1
# out= 1098 Din=0 Mod=0 Freq=0 clk=0
# out= 1098 Din=0 Mod=0 Freq=0 clk=1
# out= 1098 Din=0 Mod=0 Freq=0 clk=0
# out= 1098 Din=0 Mod=0 Freq=0 clk=1
# out= 1098 Din=0 Mod=0 Freq=0 clk=0
# out= 1000 Din=0 Mod=0 Freq=0 clk=1
# out= 1000 Din=0 Mod=0 Freq=0 clk=0
# out= 1000 Din=0 Mod=0 Freq=0 clk=1
# out= 1000 Din=0 Mod=0 Freq=0 clk=0
# out= 1000 Din=0 Mod=0 Freq=0 clk=1
# out= 1000 Din=0 Mod=0 Freq=0 clk=0
# out= 1000 Din=0 Mod=0 Freq=0 clk=1
# out= 1000 Din=0 Mod=0 Freq=0 clk=0
# out=  902 Din=0 Mod=0 Freq=0 clk=1
# out=  902 Din=0 Mod=0 Freq=0 clk=0
# out=  902 Din=0 Mod=0 Freq=0 clk=1
# out=  902 Din=0 Mod=0 Freq=0 clk=0
# out=  902 Din=0 Mod=0 Freq=0 clk=1
# out=  902 Din=0 Mod=0 Freq=0 clk=0
# out=  902 Din=0 Mod=0 Freq=0 clk=1
# out=  902 Din=0 Mod=0 Freq=0 clk=0
# out=  805 Din=0 Mod=0 Freq=0 clk=1
# out=  805 Din=0 Mod=0 Freq=0 clk=0
# out=  805 Din=0 Mod=0 Freq=0 clk=1
# out=  805 Din=0 Mod=0 Freq=0 clk=0
# out=  805 Din=0 Mod=0 Freq=0 clk=1
# out=  805 Din=0 Mod=0 Freq=0 clk=0
# out=  805 Din=0 Mod=0 Freq=0 clk=1
# out=  805 Din=0 Mod=0 Freq=0 clk=0
# out=  710 Din=0 Mod=0 Freq=0 clk=1
# out=  710 Din=0 Mod=0 Freq=0 clk=0
# out=  710 Din=0 Mod=0 Freq=0 clk=1
# out=  710 Din=0 Mod=0 Freq=0 clk=0
# out=  710 Din=0 Mod=0 Freq=0 clk=1
# out=  710 Din=0 Mod=0 Freq=0 clk=0
# out=  710 Din=0 Mod=0 Freq=0 clk=1
# out=  710 Din=0 Mod=0 Freq=0 clk=0
# out=  617 Din=0 Mod=0 Freq=0 clk=1
# out=  617 Din=0 Mod=0 Freq=0 clk=0
# out=  617 Din=0 Mod=0 Freq=0 clk=1
# out=  617 Din=0 Mod=0 Freq=0 clk=0
# out=  617 Din=0 Mod=0 Freq=0 clk=1
# out=  617 Din=0 Mod=0 Freq=0 clk=0
# out=  617 Din=0 Mod=0 Freq=0 clk=1
# out=  617 Din=0 Mod=0 Freq=0 clk=0
# out=  529 Din=0 Mod=0 Freq=0 clk=1
# out=  529 Din=0 Mod=0 Freq=0 clk=0
# out=  529 Din=0 Mod=0 Freq=0 clk=1
# out=  529 Din=0 Mod=0 Freq=0 clk=0
# out=  529 Din=0 Mod=0 Freq=0 clk=1
# out=  529 Din=0 Mod=0 Freq=0 clk=0
# out=  529 Din=0 Mod=0 Freq=0 clk=1
# out=  529 Din=0 Mod=0 Freq=0 clk=0
# out=  444 Din=0 Mod=0 Freq=0 clk=1
# out=  444 Din=0 Mod=0 Freq=0 clk=0
# out=  444 Din=0 Mod=0 Freq=0 clk=1
# out=  444 Din=0 Mod=0 Freq=0 clk=0
# out=  444 Din=0 Mod=0 Freq=0 clk=1
# out=  444 Din=0 Mod=0 Freq=0 clk=0
# out=  444 Din=0 Mod=0 Freq=0 clk=1
# out=  444 Din=0 Mod=0 Freq=0 clk=0
# out=  366 Din=0 Mod=0 Freq=0 clk=1
# out=  366 Din=0 Mod=0 Freq=0 clk=0
# out=  366 Din=0 Mod=0 Freq=0 clk=1
# out=  366 Din=0 Mod=0 Freq=0 clk=0
# out=  366 Din=0 Mod=0 Freq=0 clk=1
# out=  366 Din=0 Mod=0 Freq=0 clk=0
# out=  366 Din=0 Mod=0 Freq=0 clk=1
# out=  366 Din=0 Mod=0 Freq=0 clk=0
# out=  293 Din=0 Mod=0 Freq=0 clk=1
# out=  293 Din=0 Mod=0 Freq=0 clk=0
# out=  293 Din=0 Mod=0 Freq=0 clk=1
# out=  293 Din=0 Mod=0 Freq=0 clk=0
# out=  293 Din=0 Mod=0 Freq=0 clk=1
# out=  293 Din=0 Mod=0 Freq=0 clk=0
# out=  293 Din=0 Mod=0 Freq=0 clk=1
# out=  293 Din=0 Mod=0 Freq=0 clk=0
# out=  227 Din=0 Mod=0 Freq=0 clk=1
# out=  227 Din=0 Mod=0 Freq=0 clk=0
# out=  227 Din=0 Mod=0 Freq=0 clk=1
# out=  227 Din=0 Mod=0 Freq=0 clk=0
# out=  227 Din=0 Mod=0 Freq=0 clk=1
# out=  227 Din=0 Mod=0 Freq=0 clk=0
# out=  227 Din=0 Mod=0 Freq=0 clk=1
# out=  227 Din=0 Mod=0 Freq=0 clk=0
# out=  169 Din=0 Mod=0 Freq=0 clk=1
# out=  169 Din=0 Mod=0 Freq=0 clk=0
# out=  169 Din=0 Mod=0 Freq=0 clk=1
# out=  169 Din=0 Mod=0 Freq=0 clk=0
# out=  169 Din=0 Mod=0 Freq=0 clk=1
# out=  169 Din=0 Mod=0 Freq=0 clk=0
# out=  169 Din=0 Mod=0 Freq=0 clk=1
# out=  169 Din=0 Mod=0 Freq=0 clk=0
# out=  118 Din=0 Mod=0 Freq=0 clk=1
# out=  118 Din=0 Mod=0 Freq=0 clk=0
# out=  118 Din=0 Mod=0 Freq=0 clk=1
# out=  118 Din=0 Mod=0 Freq=0 clk=0
# out=  118 Din=0 Mod=0 Freq=0 clk=1
# out=  118 Din=0 Mod=0 Freq=0 clk=0
# out=  118 Din=0 Mod=0 Freq=0 clk=1
# out=  118 Din=0 Mod=0 Freq=0 clk=0
# out=   76 Din=0 Mod=0 Freq=0 clk=1
# out=   76 Din=0 Mod=0 Freq=0 clk=0
# out=   76 Din=0 Mod=0 Freq=0 clk=1
# out=   76 Din=0 Mod=0 Freq=0 clk=0
# out=   76 Din=0 Mod=0 Freq=0 clk=1
# out=   76 Din=0 Mod=0 Freq=0 clk=0
# out=   76 Din=0 Mod=0 Freq=0 clk=1
# out=   76 Din=0 Mod=0 Freq=0 clk=0
# out=   43 Din=0 Mod=0 Freq=0 clk=1
# out=   43 Din=0 Mod=0 Freq=0 clk=0
# out=   43 Din=0 Mod=0 Freq=0 clk=1
# out=   43 Din=0 Mod=0 Freq=0 clk=0
# out=   43 Din=0 Mod=0 Freq=0 clk=1
# out=   43 Din=0 Mod=0 Freq=0 clk=0
# out=   43 Din=0 Mod=0 Freq=0 clk=1
# out=   43 Din=0 Mod=0 Freq=0 clk=0
# out=   19 Din=0 Mod=0 Freq=0 clk=1
# out=   19 Din=0 Mod=0 Freq=0 clk=0
# out=   19 Din=0 Mod=0 Freq=0 clk=1
# out=   19 Din=0 Mod=0 Freq=0 clk=0
# out=   19 Din=0 Mod=0 Freq=0 clk=1
# out=   19 Din=0 Mod=0 Freq=0 clk=0
# out=   19 Din=0 Mod=0 Freq=0 clk=1
# out=   19 Din=0 Mod=0 Freq=0 clk=0
# out=    5 Din=0 Mod=0 Freq=0 clk=1
# out=    5 Din=0 Mod=0 Freq=0 clk=0
# out=    5 Din=0 Mod=0 Freq=0 clk=1
# out=    5 Din=0 Mod=0 Freq=0 clk=0
# out=    5 Din=0 Mod=0 Freq=0 clk=1
# out=    5 Din=0 Mod=0 Freq=0 clk=0
# out=    5 Din=0 Mod=0 Freq=0 clk=1
# out=    5 Din=0 Mod=0 Freq=0 clk=0
# out=    0 Din=0 Mod=0 Freq=0 clk=1
# out=    0 Din=0 Mod=0 Freq=0 clk=0
# out=    0 Din=0 Mod=0 Freq=0 clk=1
# out=    0 Din=0 Mod=0 Freq=0 clk=0
# out=    0 Din=0 Mod=0 Freq=0 clk=1
# out=    0 Din=0 Mod=0 Freq=0 clk=0
# out=    0 Din=0 Mod=0 Freq=0 clk=1
# out=    0 Din=0 Mod=0 Freq=0 clk=0
# out=    5 Din=0 Mod=0 Freq=0 clk=1
# out=    5 Din=0 Mod=0 Freq=0 clk=0
# out=    5 Din=0 Mod=0 Freq=0 clk=1
# out=    5 Din=0 Mod=0 Freq=0 clk=0
# out=    5 Din=0 Mod=0 Freq=0 clk=1
# out=    5 Din=0 Mod=0 Freq=0 clk=0
# out=    5 Din=0 Mod=0 Freq=0 clk=1
# out=    5 Din=0 Mod=0 Freq=0 clk=0
# out=   19 Din=0 Mod=0 Freq=0 clk=1
# out=   19 Din=0 Mod=0 Freq=0 clk=0
# out=   19 Din=0 Mod=0 Freq=0 clk=1
# out=   19 Din=0 Mod=0 Freq=0 clk=0
# out=   19 Din=0 Mod=0 Freq=0 clk=1
# out=   19 Din=0 Mod=0 Freq=0 clk=0
# out=   19 Din=0 Mod=0 Freq=0 clk=1
# out=   19 Din=0 Mod=0 Freq=0 clk=0
# out=   43 Din=0 Mod=0 Freq=0 clk=1
# out=   43 Din=0 Mod=0 Freq=0 clk=0
# out=   43 Din=0 Mod=0 Freq=0 clk=1
# out=   43 Din=0 Mod=0 Freq=0 clk=0
# out=   43 Din=0 Mod=0 Freq=0 clk=1
# out=   43 Din=0 Mod=0 Freq=0 clk=0
# out=   43 Din=0 Mod=0 Freq=0 clk=1
# out=   43 Din=0 Mod=0 Freq=0 clk=0
# out=   76 Din=0 Mod=0 Freq=0 clk=1
# out=   76 Din=0 Mod=0 Freq=0 clk=0
# out=   76 Din=0 Mod=0 Freq=0 clk=1
# out=   76 Din=0 Mod=0 Freq=0 clk=0
# out=   76 Din=0 Mod=0 Freq=0 clk=1
# out=   76 Din=0 Mod=0 Freq=0 clk=0
# out=   76 Din=0 Mod=0 Freq=0 clk=1
# out=   76 Din=0 Mod=0 Freq=0 clk=0
# out=  118 Din=0 Mod=0 Freq=0 clk=1
# out=  118 Din=0 Mod=0 Freq=0 clk=0
# out=  118 Din=0 Mod=0 Freq=0 clk=1
# out=  118 Din=0 Mod=0 Freq=0 clk=0
# out=  118 Din=0 Mod=0 Freq=0 clk=1
# out=  118 Din=0 Mod=0 Freq=0 clk=0
# out=  118 Din=0 Mod=0 Freq=0 clk=1
# out=  118 Din=0 Mod=0 Freq=0 clk=0
# out=  169 Din=0 Mod=0 Freq=0 clk=1
# out=  169 Din=0 Mod=0 Freq=0 clk=0
# out=  169 Din=0 Mod=0 Freq=0 clk=1
# out=  169 Din=0 Mod=0 Freq=0 clk=0
# out=  169 Din=0 Mod=0 Freq=0 clk=1
# out=  169 Din=0 Mod=0 Freq=0 clk=0
# out=  169 Din=0 Mod=0 Freq=0 clk=1
# out=  169 Din=0 Mod=0 Freq=0 clk=0
# out=  227 Din=0 Mod=0 Freq=0 clk=1
# out=  227 Din=0 Mod=0 Freq=0 clk=0
# out=  227 Din=0 Mod=0 Freq=0 clk=1
# out=  227 Din=0 Mod=0 Freq=0 clk=0
# out=  227 Din=0 Mod=0 Freq=0 clk=1
# out=  227 Din=0 Mod=0 Freq=0 clk=0
# out=  227 Din=0 Mod=0 Freq=0 clk=1
# out=  227 Din=0 Mod=0 Freq=0 clk=0
# out=  293 Din=0 Mod=0 Freq=0 clk=1
# out=  293 Din=0 Mod=0 Freq=0 clk=0
# out=  293 Din=0 Mod=0 Freq=0 clk=1
# out=  293 Din=0 Mod=0 Freq=0 clk=0
# out=  293 Din=0 Mod=0 Freq=0 clk=1
# out=  293 Din=0 Mod=0 Freq=0 clk=0
# out=  293 Din=0 Mod=0 Freq=0 clk=1
# out=  293 Din=0 Mod=0 Freq=0 clk=0
# out=  366 Din=0 Mod=0 Freq=0 clk=1
# out=  366 Din=0 Mod=0 Freq=0 clk=0
# out=  366 Din=0 Mod=0 Freq=0 clk=1
# out=  366 Din=0 Mod=0 Freq=0 clk=0
# out=  366 Din=0 Mod=0 Freq=0 clk=1
# out=  366 Din=0 Mod=0 Freq=0 clk=0
# out=  366 Din=0 Mod=0 Freq=0 clk=1
# out=  366 Din=0 Mod=0 Freq=0 clk=0
# out=  444 Din=0 Mod=0 Freq=0 clk=1
# out=  444 Din=0 Mod=0 Freq=0 clk=0
# out=  444 Din=0 Mod=0 Freq=0 clk=1
# out=  444 Din=0 Mod=0 Freq=0 clk=0
# out=  444 Din=0 Mod=0 Freq=0 clk=1
# out=  444 Din=0 Mod=0 Freq=0 clk=0
# out=  444 Din=0 Mod=0 Freq=0 clk=1
# out=  444 Din=0 Mod=0 Freq=0 clk=0
# out=  529 Din=0 Mod=0 Freq=0 clk=1
# out=  529 Din=0 Mod=0 Freq=0 clk=0
# out=  529 Din=0 Mod=0 Freq=0 clk=1
# out=  529 Din=0 Mod=0 Freq=0 clk=0
# out=  529 Din=0 Mod=0 Freq=0 clk=1
# out=  529 Din=0 Mod=0 Freq=0 clk=0
# out=  529 Din=0 Mod=0 Freq=0 clk=1
# out=  529 Din=0 Mod=0 Freq=0 clk=0
# out=  617 Din=0 Mod=0 Freq=0 clk=1
# out=  617 Din=0 Mod=0 Freq=0 clk=0
# out=  617 Din=0 Mod=0 Freq=0 clk=1
# out=  617 Din=0 Mod=0 Freq=0 clk=0
# out=  617 Din=0 Mod=0 Freq=0 clk=1
# out=  617 Din=0 Mod=0 Freq=0 clk=0
# out=  617 Din=0 Mod=0 Freq=0 clk=1
# out=  617 Din=0 Mod=0 Freq=0 clk=0
# out=  710 Din=0 Mod=0 Freq=0 clk=1
# out=  710 Din=0 Mod=0 Freq=0 clk=0
# out=  710 Din=0 Mod=0 Freq=0 clk=1
# out=  710 Din=0 Mod=0 Freq=0 clk=0
# out=  710 Din=0 Mod=0 Freq=0 clk=1
# out=  710 Din=0 Mod=0 Freq=0 clk=0
# out=  710 Din=0 Mod=0 Freq=0 clk=1
